<?xml version="1.0" encoding="utf-8"?>
<!-- Generator: Adobe Illustrator 21.0.2, SVG Export Plug-In . SVG Version: 6.00 Build 0)  -->
<svg version="1.1" id="Layer_1" xmlns="http://www.w3.org/2000/svg" xmlns:xlink="http://www.w3.org/1999/xlink" x="0px" y="0px"
	 viewBox="0 0 40 40" style="enable-background:new 0 0 40 40;" xml:space="preserve">
<style type="text/css">
	.st0{fill:url(#SVGID_1_);}
	.st1{fill:url(#SVGID_2_);}
	.st2{fill:url(#SVGID_3_);}
	.st3{fill:url(#SVGID_4_);}
	.st4{fill:none;}
</style>
<g>
	
		<linearGradient id="SVGID_1_" gradientUnits="userSpaceOnUse" x1="18.2" y1="32" x2="18.2" y2="6.3" gradientTransform="matrix(1 0 0 -1 0 39)">
		<stop  offset="0" style="stop-color:#257DB0"/>
		<stop  offset="0.208" style="stop-color:#3C90B3"/>
		<stop  offset="0.7416" style="stop-color:#73BDB9"/>
		<stop  offset="1" style="stop-color:#89CEBC"/>
	</linearGradient>
	<polygon class="st0" points="11.7,7 11.7,19.8 11.7,32.7 24.7,19.8 	"/>
	
		<linearGradient id="SVGID_2_" gradientUnits="userSpaceOnUse" x1="11.7" y1="25.65" x2="28.1362" y2="25.65" gradientTransform="matrix(1 0 0 -1 0 39)">
		<stop  offset="0" style="stop-color:#51BFAC"/>
		<stop  offset="1" style="stop-color:#DEE899"/>
	</linearGradient>
	<polygon class="st1" points="28.1,16.4 22.9,13.4 11.7,6.9 11.7,7 24.7,19.8 	"/>
	
		<linearGradient id="SVGID_3_" gradientUnits="userSpaceOnUse" x1="19.9" y1="19.1558" x2="19.9" y2="6.2158" gradientTransform="matrix(1 0 0 -1 0 39)">
		<stop  offset="0" style="stop-color:#EB403D"/>
		<stop  offset="0.1937" style="stop-color:#D64252"/>
		<stop  offset="0.7369" style="stop-color:#9F4887"/>
		<stop  offset="1" style="stop-color:#894A9C"/>
	</linearGradient>
	<polygon class="st2" points="11.7,32.7 11.7,32.8 22.9,26.3 28.1,23.3 24.7,19.8 	"/>
	
		<linearGradient id="SVGID_4_" gradientUnits="userSpaceOnUse" x1="29.4" y1="22.6" x2="29.4" y2="15.7" gradientTransform="matrix(1 0 0 -1 0 39)">
		<stop  offset="0" style="stop-color:#F48779"/>
		<stop  offset="0.6121" style="stop-color:#FAB076"/>
		<stop  offset="1" style="stop-color:#FDC674"/>
	</linearGradient>
	<polygon class="st3" points="28.1,16.4 24.7,19.8 28.1,23.3 34.1,19.8 	"/>
</g>
<path class="st4" d="M28.1,16.4l-5.2-3c0,0-9.5-5.5-10.1-5.8s-1.1-0.1-1.1,0.5c0,1.1,0,11.7,0,11.7s0,11.5,0,12s0.4,0.7,0.9,0.4
	s10.3-6,10.3-6l5.2-3c0,0,4.4-2.6,5-2.9s0.5-0.8,0-1.1C32.7,19,28.1,16.4,28.1,16.4z"/>
</svg>
