<?xml version="1.0" encoding="utf-8"?>
<!-- Generator: Adobe Illustrator 21.0.2, SVG Export Plug-In . SVG Version: 6.00 Build 0)  -->
<svg version="1.1" id="Layer_1" xmlns="http://www.w3.org/2000/svg" xmlns:xlink="http://www.w3.org/1999/xlink" x="0px" y="0px"
	 viewBox="0 0 130 40" style="enable-background:new 0 0 130 40;" xml:space="preserve">
<style type="text/css">
	.st0{fill:#F2F2F2;}
	.st1{clip-path:url(#SVGID_2_);fill:url(#SVGID_3_);}
	.st2{clip-path:url(#SVGID_2_);fill:url(#SVGID_4_);}
	.st3{clip-path:url(#SVGID_2_);fill:url(#SVGID_5_);}
	.st4{clip-path:url(#SVGID_2_);fill:url(#SVGID_6_);}
	.st5{fill:#808080;}
</style>
<g>
	<path class="st0" d="M126.9,40H3.1C1.4,40,0,38.6,0,36.9V3.1C0,1.4,1.4,0,3.1,0H127c1.7,0,3.1,1.4,3.1,3.1V37
		C130,38.6,128.6,40,126.9,40z"/>
	<g>
		<g id="PLAY_1_">
			<defs>
				<path id="SVGID_1_" d="M28.7,16.3l-6.3-3.6c0,0-11.4-6.6-12.1-7C9.7,5.3,9,5.5,9,6.3c0,1.4,0,14.1,0,14.1s0,13.8,0,14.4
					c0,0.6,0.5,0.9,1.1,0.5c0.6-0.3,12.4-7.2,12.4-7.2l6.3-3.6c0,0,5.3-3.1,6-3.5c0.7-0.4,0.6-1,0-1.3
					C34.2,19.5,28.7,16.3,28.7,16.3z"/>
			</defs>
			<clipPath id="SVGID_2_">
				<use xlink:href="#SVGID_1_"  style="overflow:visible;"/>
			</clipPath>
			<linearGradient id="SVGID_3_" gradientUnits="userSpaceOnUse" x1="16.7904" y1="5.0202" x2="16.7904" y2="35.853">
				<stop  offset="0" style="stop-color:#257DB0"/>
				<stop  offset="0.208" style="stop-color:#3C90B3"/>
				<stop  offset="0.7416" style="stop-color:#73BDB9"/>
				<stop  offset="1" style="stop-color:#89CEBC"/>
			</linearGradient>
			<polygon class="st1" points="9,5 9,20.4 9,35.9 24.6,20.4 			"/>
			<linearGradient id="SVGID_4_" gradientUnits="userSpaceOnUse" x1="9.0167" y1="12.6724" x2="28.7402" y2="12.6724">
				<stop  offset="0" style="stop-color:#51BFAC"/>
				<stop  offset="1" style="stop-color:#DEE899"/>
			</linearGradient>
			<polygon class="st2" points="28.7,16.3 22.5,12.7 9,4.9 9,5 24.6,20.4 			"/>
			<linearGradient id="SVGID_5_" gradientUnits="userSpaceOnUse" x1="18.8783" y1="20.4368" x2="18.8783" y2="35.9648">
				<stop  offset="0" style="stop-color:#EB403D"/>
				<stop  offset="0.1937" style="stop-color:#D64252"/>
				<stop  offset="0.7369" style="stop-color:#9F4887"/>
				<stop  offset="1" style="stop-color:#894A9C"/>
			</linearGradient>
			<polygon class="st3" points="9,35.9 9,36 22.5,28.2 28.7,24.6 24.6,20.4 			"/>
			<linearGradient id="SVGID_6_" gradientUnits="userSpaceOnUse" x1="30.2382" y1="16.296" x2="30.2382" y2="24.5772">
				<stop  offset="0" style="stop-color:#F48779"/>
				<stop  offset="0.6121" style="stop-color:#FAB076"/>
				<stop  offset="1" style="stop-color:#FDC674"/>
			</linearGradient>
			<polygon class="st4" points="28.7,16.3 24.6,20.4 28.7,24.6 35.9,20.4 			"/>
		</g>
		<g>
			<g>
				<path class="st5" d="M100.6,28.6c-0.5,0-1-0.1-1.4-0.3c-0.4-0.2-0.8-0.5-1.1-0.9H98c0.1,0.5,0.1,0.9,0.1,1.3V32h-1.2V20.4h1
					l0.2,1.1H98c0.3-0.4,0.7-0.8,1.1-1c0.4-0.2,0.9-0.3,1.4-0.3c1.1,0,1.9,0.4,2.5,1.1c0.6,0.7,0.9,1.8,0.9,3.1
					c0,1.3-0.3,2.4-0.9,3.1C102.4,28.2,101.6,28.6,100.6,28.6z M100.4,21.2c-0.8,0-1.4,0.2-1.8,0.7c-0.4,0.5-0.6,1.2-0.6,2.2v0.3
					c0,1.1,0.2,1.9,0.6,2.4c0.4,0.5,1,0.7,1.8,0.7c0.7,0,1.2-0.3,1.6-0.8c0.4-0.6,0.6-1.3,0.6-2.3c0-1-0.2-1.8-0.6-2.3
					C101.7,21.5,101.1,21.2,100.4,21.2z"/>
				<path class="st5" d="M106.7,28.4h-1.2V17h1.2V28.4z"/>
				<path class="st5" d="M113.8,28.4l-0.2-1.1h-0.1c-0.4,0.5-0.8,0.8-1.2,1c-0.4,0.2-0.9,0.3-1.5,0.3c-0.8,0-1.4-0.2-1.9-0.6
					c-0.5-0.4-0.7-1-0.7-1.8c0-1.6,1.3-2.5,3.9-2.6l1.4,0v-0.5c0-0.6-0.1-1.1-0.4-1.4c-0.3-0.3-0.7-0.5-1.3-0.5
					c-0.7,0-1.4,0.2-2.3,0.6l-0.4-0.9c0.4-0.2,0.8-0.4,1.3-0.5c0.5-0.1,0.9-0.2,1.4-0.2c1,0,1.7,0.2,2.1,0.6
					c0.5,0.4,0.7,1.1,0.7,2.1v5.5H113.8z M111,27.6c0.8,0,1.4-0.2,1.8-0.6c0.4-0.4,0.7-1,0.7-1.8v-0.7l-1.2,0.1
					c-1,0-1.7,0.2-2.1,0.5c-0.4,0.3-0.6,0.7-0.6,1.2c0,0.4,0.1,0.8,0.4,1C110.1,27.4,110.5,27.6,111,27.6z"/>
				<path class="st5" d="M115.4,20.4h1.3l1.8,4.6c0.4,1,0.6,1.8,0.7,2.3h0.1c0.1-0.3,0.2-0.7,0.4-1.3c0.2-0.6,0.9-2.5,2-5.6h1.3
					l-3.5,9.2c-0.3,0.9-0.7,1.6-1.2,1.9c-0.5,0.4-1,0.6-1.7,0.6c-0.4,0-0.7,0-1.1-0.1v-1c0.3,0.1,0.6,0.1,0.9,0.1
					c0.8,0,1.4-0.5,1.8-1.4l0.4-1.1L115.4,20.4z"/>
			</g>
			<g>
				<path class="st5" d="M78,21.1c0.4,0.3,1.2,1,1.2,2.3c0,1.2-0.7,1.8-1.4,2.4c-0.2,0.2-0.5,0.5-0.5,0.8c0,0.4,0.3,0.6,0.4,0.7
					l0.6,0.5c0.7,0.6,1.4,1.2,1.4,2.4c0,1.6-1.5,3.2-4.4,3.2c-2.4,0-3.6-1.2-3.6-2.4c0-0.6,0.3-1.5,1.3-2.1c1-0.6,2.5-0.7,3.2-0.8
					c-0.2-0.3-0.5-0.6-0.5-1.1c0-0.3,0.1-0.5,0.2-0.7c-0.2,0-0.4,0-0.5,0c-1.8,0-2.8-1.3-2.8-2.6c0-0.8,0.4-1.6,1.1-2.3
					c1-0.8,2.1-0.9,3-0.9h3.5L79,21.1H78z M76.8,28.6c-0.1,0-0.2,0-0.4,0c-0.2,0-1.1,0-1.8,0.3c-0.4,0.1-1.4,0.5-1.4,1.7
					c0,1.2,1.2,2.1,3,2.1c1.6,0,2.5-0.8,2.5-1.8C78.6,30,78,29.5,76.8,28.6z M77.2,25.4c0.4-0.4,0.4-0.9,0.4-1.2
					c0-1.2-0.7-3.1-2.1-3.1c-0.4,0-0.9,0.2-1.2,0.6C74.1,22,74,22.4,74,22.9c0,1.1,0.7,3,2.1,3C76.5,25.9,77,25.7,77.2,25.4z"/>
				<path class="st5" d="M67.3,28.3c-2.7,0-4.1-2.1-4.1-4c0-2.2,1.8-4.1,4.4-4.1c2.5,0,4,1.9,4,4C71.6,26.2,70.1,28.3,67.3,28.3z
					 M69.4,27c0.4-0.5,0.5-1.2,0.5-1.9c0-1.5-0.7-4.3-2.8-4.3c-0.6,0-1.1,0.2-1.5,0.6c-0.7,0.6-0.8,1.3-0.8,2.1
					c0,1.7,0.8,4.4,2.9,4.4C68.4,27.8,69.1,27.5,69.4,27z"/>
				<path class="st5" d="M58.2,28.3c-2.7,0-4.1-2.1-4.1-4c0-2.2,1.8-4.1,4.4-4.1c2.5,0,4,1.9,4,4C62.5,26.2,61,28.3,58.2,28.3z
					 M60.3,27c0.4-0.5,0.5-1.2,0.5-1.9c0-1.5-0.7-4.3-2.8-4.3c-0.6,0-1.1,0.2-1.5,0.6c-0.7,0.6-0.8,1.3-0.8,2.1
					c0,1.7,0.8,4.4,2.9,4.4C59.3,27.8,59.9,27.5,60.3,27z"/>
				<path class="st5" d="M52.8,28.1l-2.4,0.6c-1,0.2-1.9,0.3-2.8,0.3c-4.7,0-6.4-3.4-6.4-6.1c0-3.3,2.5-6.3,6.8-6.3
					c0.9,0,1.8,0.1,2.6,0.4c1.3,0.4,1.9,0.8,2.2,1l-1.4,1.3l-0.6,0.1l0.4-0.7c-0.6-0.6-1.6-1.6-3.6-1.6c-2.7,0-4.7,2-4.7,5
					c0,3.2,2.3,6.2,6,6.2c1.1,0,1.6-0.2,2.1-0.4v-2.7l-2.6,0.1l1.4-0.7h3.6L53,24.9c-0.1,0.1-0.1,0.1-0.2,0.3c0,0.2,0,0.6,0,0.8
					V28.1z"/>
				<path class="st5" d="M83.3,27.6c-0.6-0.1-0.7-0.2-0.7-0.8v-0.2v-9.4c0,0,0-0.1,0-0.1c0.1-0.6,0.2-0.7,0.8-1H81l-1.3,0.6H81v0
					l0,0v9.9v0.6c0,0.3-0.1,0.4-0.5,0.9h3l0.6-0.4C83.9,27.6,83.6,27.6,83.3,27.6z"/>
				<path class="st5" d="M90.2,27.7c-0.2,0.1-0.4,0.2-0.6,0.3c-0.6,0.3-1.1,0.3-1.6,0.3c-0.5,0-1.4,0-2.2-0.7
					c-1.2-0.8-1.7-2.3-1.7-3.5c0-2.6,2.1-3.9,3.8-3.9c0.6,0,1.2,0.2,1.7,0.5c0.8,0.6,1.1,1.3,1.2,1.7L86.9,24l-1.3,0.1
					c0.4,2.1,1.9,3.4,3.5,3.4c0.9,0,1.5-0.3,2.1-0.6L90.2,27.7z M88.6,22.7c0.3-0.1,0.5-0.2,0.5-0.5c0-0.7-0.8-1.4-1.7-1.4
					c-0.7,0-1.9,0.5-1.9,2.3c0,0.3,0,0.6,0.1,0.9L88.6,22.7z"/>
				<g>
					<path class="st5" d="M91.8,20.4v1.1h-0.1v-1.1h-0.4v-0.1h0.9v0.1H91.8z"/>
					<path class="st5" d="M93.3,21.5v-1.1h0L93,21.5h-0.1l-0.3-1.1h0v1.1h-0.1v-1.2h0.2l0.3,1h0l0.3-1h0.2v1.2H93.3z"/>
				</g>
			</g>
			<g>
				<path class="st5" d="M44.5,13.2h-0.8c0-0.1-0.1-0.4-0.2-1h-1.2c-0.2,0.5-0.2,0.9-0.2,1h-0.8c0-0.1,0.2-0.6,0.6-1.7
					c0.4-1.1,0.6-1.6,0.6-1.7h1c0,0.1,0.2,0.7,0.6,1.7C44.3,12.5,44.5,13.1,44.5,13.2z M43.3,11.7c-0.3-0.9-0.4-1.4-0.4-1.5h0
					c0,0.1-0.2,0.6-0.5,1.5H43.3z"/>
				<path class="st5" d="M47.9,13.2h-0.6c0-0.1-0.2-0.5-0.7-1.1c-0.5-0.7-0.8-1.2-0.9-1.5h0c0,0.4,0.1,0.7,0.1,1c0,0.4,0,1,0,1.6
					h-0.6c0-0.5,0-1.1,0-1.8c0-0.6,0-1.2,0-1.6h0.8c0,0.1,0.2,0.5,0.6,1.1c0.5,0.7,0.7,1.2,0.8,1.4h0c0-0.4-0.1-0.7-0.1-1.1
					c0-0.5,0-1,0-1.5h0.7c0,0.4,0,1,0,1.6C47.9,12,47.9,12.6,47.9,13.2z"/>
				<path class="st5" d="M51.7,11.3c0,0.5-0.2,0.9-0.5,1.3c-0.3,0.4-0.8,0.6-1.3,0.6c-0.3,0-0.6,0-1.1,0c0-0.5,0-1.1,0-1.8
					c0-0.6,0-1.2,0-1.6h0.5c0.1,0,0.2,0,0.3,0c0.1,0,0.2,0,0.3,0c0.6,0,1.1,0.2,1.4,0.5C51.6,10.5,51.7,10.9,51.7,11.3z M51,11.4
					c0-0.3-0.1-0.6-0.3-0.9c-0.2-0.2-0.5-0.3-0.9-0.3c-0.1,0-0.2,0-0.3,0c0,0.4,0,0.7,0,1.1c0,0.4,0,0.8,0,1.2c0.1,0,0.2,0,0.3,0
					c0.4,0,0.7-0.1,0.8-0.4C50.9,12.1,51,11.8,51,11.4z"/>
				<path class="st5" d="M55.2,13.2h-0.8c-0.2-0.6-0.4-1-0.5-1.1c-0.1-0.1-0.3-0.2-0.5-0.2c-0.1,0-0.2,0-0.3,0c0,0.5,0,0.9,0,1.4
					h-0.7c0-0.5,0-1.1,0-1.8c0-0.6,0-1.2,0-1.6h0.5c0.1,0,0.2,0,0.3,0c0.2,0,0.3,0,0.5,0c0.8,0,1.2,0.3,1.2,0.8
					c0,0.4-0.2,0.7-0.7,0.9v0c0.2,0,0.3,0.2,0.5,0.4C54.8,12.1,55,12.6,55.2,13.2z M54.3,10.7c0-0.3-0.2-0.5-0.7-0.5
					c-0.2,0-0.3,0-0.4,0c0,0.3,0,0.6,0,1.1c0.1,0,0.2,0,0.2,0C54,11.3,54.3,11.1,54.3,10.7z"/>
				<path class="st5" d="M59,11.4c0,0.5-0.2,1-0.5,1.3c-0.3,0.4-0.7,0.5-1.2,0.5c-0.5,0-0.8-0.2-1.2-0.5c-0.3-0.3-0.5-0.7-0.5-1.2
					c0-0.5,0.2-1,0.5-1.3c0.3-0.4,0.7-0.5,1.2-0.5c0.5,0,0.8,0.2,1.2,0.5C58.8,10.5,59,10.9,59,11.4z M58.3,11.5
					c0-0.4-0.1-0.7-0.3-0.9c-0.2-0.2-0.4-0.3-0.7-0.3c-0.3,0-0.5,0.1-0.7,0.3c-0.2,0.2-0.3,0.5-0.3,0.9c0,0.4,0.1,0.7,0.3,0.9
					c0.2,0.2,0.4,0.3,0.7,0.3c0.3,0,0.5-0.1,0.7-0.3C58.2,12.1,58.3,11.8,58.3,11.5z"/>
				<path class="st5" d="M60.5,13.2h-0.7c0-0.5,0-1.1,0-1.8c0-0.6,0-1.2,0-1.6h0.7c0,0.4,0,1,0,1.6C60.5,12,60.5,12.6,60.5,13.2z"/>
				<path class="st5" d="M64.3,11.3c0,0.5-0.2,0.9-0.5,1.3c-0.3,0.4-0.8,0.6-1.3,0.6c-0.3,0-0.6,0-1.1,0c0-0.5,0-1.1,0-1.8
					c0-0.6,0-1.2,0-1.6h0.5c0.1,0,0.2,0,0.3,0c0.1,0,0.2,0,0.3,0c0.6,0,1.1,0.2,1.4,0.5C64.2,10.5,64.3,10.9,64.3,11.3z M63.6,11.4
					c0-0.3-0.1-0.6-0.3-0.9c-0.2-0.2-0.5-0.3-0.9-0.3c-0.1,0-0.2,0-0.3,0c0,0.4,0,0.7,0,1.1c0,0.4,0,0.8,0,1.2c0.1,0,0.2,0,0.3,0
					c0.4,0,0.7-0.1,0.8-0.4C63.5,12.1,63.6,11.8,63.6,11.4z"/>
				<path class="st5" d="M69.4,13.2h-0.8c0-0.1-0.1-0.4-0.2-1h-1.2c-0.2,0.5-0.2,0.9-0.2,1H66c0-0.1,0.2-0.6,0.6-1.7
					c0.4-1.1,0.6-1.6,0.6-1.7h1c0,0.1,0.2,0.7,0.6,1.7C69.2,12.5,69.4,13.1,69.4,13.2z M68.1,11.7c-0.3-0.9-0.4-1.4-0.4-1.5h0
					c0,0.1-0.2,0.6-0.5,1.5H68.1z"/>
				<path class="st5" d="M72.4,10.6c0,0.4-0.2,0.7-0.5,0.9c-0.3,0.2-0.7,0.3-1.1,0.3c-0.1,0-0.1,0-0.2,0c0,0.3,0,0.8,0,1.3h-0.7
					c0-0.5,0-1.1,0-1.8c0-0.6,0-1.2,0-1.6h0.5c0.1,0,0.2,0,0.4,0c0.2,0,0.3,0,0.5,0c0.3,0,0.6,0.1,0.8,0.2
					C72.3,10.1,72.4,10.3,72.4,10.6z M71.7,10.8c0-0.4-0.2-0.6-0.7-0.6c-0.1,0-0.3,0-0.4,0c0,0.3,0,0.7,0,1.1c0,0,0.1,0,0.2,0
					C71.4,11.4,71.7,11.2,71.7,10.8z"/>
				<path class="st5" d="M75.6,10.6c0,0.4-0.2,0.7-0.5,0.9c-0.3,0.2-0.7,0.3-1.1,0.3c-0.1,0-0.1,0-0.2,0c0,0.3,0,0.8,0,1.3h-0.7
					c0-0.5,0-1.1,0-1.8c0-0.6,0-1.2,0-1.6h0.5c0.1,0,0.2,0,0.4,0c0.2,0,0.3,0,0.5,0c0.3,0,0.6,0.1,0.8,0.2
					C75.5,10.1,75.6,10.3,75.6,10.6z M74.9,10.8c0-0.4-0.2-0.6-0.7-0.6c-0.1,0-0.3,0-0.4,0c0,0.3,0,0.7,0,1.1c0,0,0.1,0,0.2,0
					C74.6,11.4,74.9,11.2,74.9,10.8z"/>
				<path class="st5" d="M80.7,11.4c0,0.5-0.2,1-0.5,1.3c-0.3,0.4-0.7,0.5-1.2,0.5c-0.5,0-0.8-0.2-1.2-0.5c-0.3-0.3-0.5-0.7-0.5-1.2
					c0-0.5,0.2-1,0.5-1.3c0.3-0.4,0.7-0.5,1.2-0.5c0.5,0,0.8,0.2,1.2,0.5C80.6,10.5,80.7,10.9,80.7,11.4z M80,11.5
					c0-0.4-0.1-0.7-0.3-0.9c-0.2-0.2-0.4-0.3-0.7-0.3c-0.3,0-0.5,0.1-0.7,0.3c-0.2,0.2-0.3,0.5-0.3,0.9c0,0.4,0.1,0.7,0.3,0.9
					c0.2,0.2,0.4,0.3,0.7,0.3c0.3,0,0.5-0.1,0.7-0.3C79.9,12.1,80,11.8,80,11.5z"/>
				<path class="st5" d="M84.3,13.2h-0.6c0-0.1-0.2-0.5-0.7-1.1c-0.5-0.7-0.8-1.2-0.9-1.5h0c0,0.4,0.1,0.7,0.1,1c0,0.4,0,1,0,1.6
					h-0.6c0-0.5,0-1.1,0-1.8c0-0.6,0-1.2,0-1.6h0.8c0,0.1,0.2,0.5,0.6,1.1c0.5,0.7,0.7,1.2,0.8,1.4h0c0-0.4-0.1-0.7-0.1-1.1
					c0-0.5,0-1,0-1.5h0.7c0,0.4,0,1,0,1.6C84.2,12,84.3,12.6,84.3,13.2z"/>
			</g>
		</g>
	</g>
</g>
</svg>
